[
  {
    "id": "edfc5f5d-2874-4c87-9101-a2e6013f7b87",
    "publicationTime": "2014-03-06T19:23:12",
    "applicationType": "Glass2",
    "status": "Published",
    "configurationId": "c53437d0-bf02-492e-9023-9f68006e5d52",
    "displayName": "Зарубежнефть (23.09.11)",
    "name": "zneft",
    "operatorPriority": 0,
    "mark": "#ffffff",
    "enableTv": true
  }
]