{
  "items": [
    {
      "imageId": "ec70b106-32ee-4daa-a8c2-a32100d31545",
      "url": "http://v-stg-app11/ExternalServices/Monitor.Image.Web/Image/GetById/ec70b106-32ee-4daa-a8c2-a32100d31545/G1/1",
      "width": 386,
      "height": 210
    },
    {
      "imageId": "1bd57c82-6b84-4b24-a808-a31500de238e",
      "url": "http://v-stg-app11/ExternalServices/Monitor.Image.Web/Image/GetById/1bd57c82-6b84-4b24-a808-a31500de238e/G1/1",
      "width": 300,
      "height": 225
    },
    {
      "imageId": "bda5796b-7119-4a19-9542-a32100c9b2fd",
      "url": "http://v-stg-app11/ExternalServices/Monitor.Image.Web/Image/GetById/bda5796b-7119-4a19-9542-a32100c9b2fd/G1/1",
      "width": 260,
      "height": 146
    },
    {
      "imageId": "f458bdc8-5467-4945-b5f9-a31500de239c",
      "url": "http://v-stg-app11/ExternalServices/Monitor.Image.Web/Image/GetById/f458bdc8-5467-4945-b5f9-a31500de239c/G1/1",
      "width": 225,
      "height": 130
    }
  ],
  "totalCount": 4,
  "pageIndex": 0,
  "pageSize": 20
}